--debug
--sgen-conc
/target-framework:Xamarin.iOS,Version=v1.0
--http-message-handler=NSUrlSessionHandler
"--cache=/Users/shatakshi/Desktop/Shatakshi/ECommerceApp/ECommerceApp.iOS/obj/iPhoneSimulator/Debug/device-builds/iphone 11-13.6/mtouch-cache"
--root-assembly=/Users/shatakshi/Desktop/Shatakshi/ECommerceApp/ECommerceApp.iOS/bin/iPhoneSimulator/Debug/ECommerceApp.iOS.exe
--sdkroot=/Applications/Xcode.app/Contents/Developer
"--sim=/Users/shatakshi/Desktop/Shatakshi/ECommerceApp/ECommerceApp.iOS/bin/iPhoneSimulator/Debug/device-builds/iphone 11-13.6/ECommerceApp.iOS.app"
--executable=ECommerceApp.iOS
--nolink
--sdk=13.6
--targetver=10.0
--aot-options=-O=-float32
--abi=x86_64
"--symbollist=/Users/shatakshi/Desktop/Shatakshi/ECommerceApp/ECommerceApp.iOS/obj/iPhoneSimulator/Debug/device-builds/iphone 11-13.6/mtouch-symbols.list"
--dsym=no
-r=/Users/shatakshi/Desktop/Shatakshi/ECommerceApp/ECommerceApp/bin/Debug/netstandard2.0/ECommerceApp.dll
-r=/Library/Frameworks/Xamarin.iOS.framework/Versions/Current/lib/mono/Xamarin.iOS/mscorlib.dll
-r=/Library/Frameworks/Xamarin.iOS.framework/Versions/Current/lib/mono/Xamarin.iOS/OpenTK-1.0.dll
-r=/Library/Frameworks/Xamarin.iOS.framework/Versions/Current/lib/mono/Xamarin.iOS/System.Core.dll
-r=/Library/Frameworks/Xamarin.iOS.framework/Versions/Current/lib/mono/Xamarin.iOS/System.dll
-r=/Library/Frameworks/Xamarin.iOS.framework/Versions/Current/lib/mono/Xamarin.iOS/System.Numerics.dll
-r=/Library/Frameworks/Xamarin.iOS.framework/Versions/Current/lib/mono/Xamarin.iOS/System.Numerics.Vectors.dll
-r=/Library/Frameworks/Xamarin.iOS.framework/Versions/Current/lib/mono/Xamarin.iOS/System.Xml.dll
-r=/Users/shatakshi/.nuget/packages/xamarin.forms/4.7.0.1260/buildTransitive/XCODE11/Xamarin.Forms.Platform.iOS.dll
-r=/Library/Frameworks/Xamarin.iOS.framework/Versions/Current/lib/mono/Xamarin.iOS/Xamarin.iOS.dll
-r=/Library/Frameworks/Xamarin.iOS.framework/Versions/Current/lib/mono/Xamarin.iOS/Facades/Microsoft.Win32.Primitives.dll
-r=/Library/Frameworks/Xamarin.iOS.framework/Versions/Current/lib/mono/Xamarin.iOS/Facades/Microsoft.Win32.Registry.AccessControl.dll
-r=/Library/Frameworks/Xamarin.iOS.framework/Versions/Current/lib/mono/Xamarin.iOS/Facades/Microsoft.Win32.Registry.dll
-r=/Library/Frameworks/Xamarin.iOS.framework/Versions/Current/lib/mono/Xamarin.iOS/Facades/netstandard.dll
-r=/Library/Frameworks/Xamarin.iOS.framework/Versions/Current/lib/mono/Xamarin.iOS/Facades/System.AppContext.dll
-r=/Library/Frameworks/Xamarin.iOS.framework/Versions/Current/lib/mono/Xamarin.iOS/Facades/System.Buffers.dll
-r=/Library/Frameworks/Xamarin.iOS.framework/Versions/Current/lib/mono/Xamarin.iOS/Facades/System.Collections.Concurrent.dll
-r=/Library/Frameworks/Xamarin.iOS.framework/Versions/Current/lib/mono/Xamarin.iOS/Facades/System.Collections.dll
-r=/Library/Frameworks/Xamarin.iOS.framework/Versions/Current/lib/mono/Xamarin.iOS/Facades/System.Collections.NonGeneric.dll
-r=/Library/Frameworks/Xamarin.iOS.framework/Versions/Current/lib/mono/Xamarin.iOS/Facades/System.Collections.Specialized.dll
-r=/Library/Frameworks/Xamarin.iOS.framework/Versions/Current/lib/mono/Xamarin.iOS/Facades/System.ComponentModel.Annotations.dll
-r=/Library/Frameworks/Xamarin.iOS.framework/Versions/Current/lib/mono/Xamarin.iOS/Facades/System.ComponentModel.dll
-r=/Library/Frameworks/Xamarin.iOS.framework/Versions/Current/lib/mono/Xamarin.iOS/Facades/System.ComponentModel.EventBasedAsync.dll
-r=/Library/Frameworks/Xamarin.iOS.framework/Versions/Current/lib/mono/Xamarin.iOS/Facades/System.ComponentModel.Primitives.dll
-r=/Library/Frameworks/Xamarin.iOS.framework/Versions/Current/lib/mono/Xamarin.iOS/Facades/System.ComponentModel.TypeConverter.dll
-r=/Library/Frameworks/Xamarin.iOS.framework/Versions/Current/lib/mono/Xamarin.iOS/Facades/System.Console.dll
-r=/Library/Frameworks/Xamarin.iOS.framework/Versions/Current/lib/mono/Xamarin.iOS/Facades/System.Data.Common.dll
-r=/Library/Frameworks/Xamarin.iOS.framework/Versions/Current/lib/mono/Xamarin.iOS/Facades/System.Data.SqlClient.dll
-r=/Library/Frameworks/Xamarin.iOS.framework/Versions/Current/lib/mono/Xamarin.iOS/Facades/System.Diagnostics.Contracts.dll
-r=/Library/Frameworks/Xamarin.iOS.framework/Versions/Current/lib/mono/Xamarin.iOS/Facades/System.Diagnostics.Debug.dll
-r=/Library/Frameworks/Xamarin.iOS.framework/Versions/Current/lib/mono/Xamarin.iOS/Facades/System.Diagnostics.FileVersionInfo.dll
-r=/Library/Frameworks/Xamarin.iOS.framework/Versions/Current/lib/mono/Xamarin.iOS/Facades/System.Diagnostics.Process.dll
-r=/Library/Frameworks/Xamarin.iOS.framework/Versions/Current/lib/mono/Xamarin.iOS/Facades/System.Diagnostics.StackTrace.dll
-r=/Library/Frameworks/Xamarin.iOS.framework/Versions/Current/lib/mono/Xamarin.iOS/Facades/System.Diagnostics.TextWriterTraceListener.dll
-r=/Library/Frameworks/Xamarin.iOS.framework/Versions/Current/lib/mono/Xamarin.iOS/Facades/System.Diagnostics.Tools.dll
-r=/Library/Frameworks/Xamarin.iOS.framework/Versions/Current/lib/mono/Xamarin.iOS/Facades/System.Diagnostics.TraceEvent.dll
-r=/Library/Frameworks/Xamarin.iOS.framework/Versions/Current/lib/mono/Xamarin.iOS/Facades/System.Diagnostics.TraceSource.dll
-r=/Library/Frameworks/Xamarin.iOS.framework/Versions/Current/lib/mono/Xamarin.iOS/Facades/System.Diagnostics.Tracing.dll
-r=/Library/Frameworks/Xamarin.iOS.framework/Versions/Current/lib/mono/Xamarin.iOS/Facades/System.Drawing.Common.dll
-r=/Library/Frameworks/Xamarin.iOS.framework/Versions/Current/lib/mono/Xamarin.iOS/Facades/System.Drawing.Primitives.dll
-r=/Library/Frameworks/Xamarin.iOS.framework/Versions/Current/lib/mono/Xamarin.iOS/Facades/System.Dynamic.Runtime.dll
-r=/Library/Frameworks/Xamarin.iOS.framework/Versions/Current/lib/mono/Xamarin.iOS/Facades/System.Globalization.Calendars.dll
-r=/Library/Frameworks/Xamarin.iOS.framework/Versions/Current/lib/mono/Xamarin.iOS/Facades/System.Globalization.dll
-r=/Library/Frameworks/Xamarin.iOS.framework/Versions/Current/lib/mono/Xamarin.iOS/Facades/System.Globalization.Extensions.dll
-r=/Library/Frameworks/Xamarin.iOS.framework/Versions/Current/lib/mono/Xamarin.iOS/Facades/System.IO.Compression.ZipFile.dll
-r=/Library/Frameworks/Xamarin.iOS.framework/Versions/Current/lib/mono/Xamarin.iOS/Facades/System.IO.dll
-r=/Library/Frameworks/Xamarin.iOS.framework/Versions/Current/lib/mono/Xamarin.iOS/Facades/System.IO.FileSystem.AccessControl.dll
-r=/Library/Frameworks/Xamarin.iOS.framework/Versions/Current/lib/mono/Xamarin.iOS/Facades/System.IO.FileSystem.dll
-r=/Library/Frameworks/Xamarin.iOS.framework/Versions/Current/lib/mono/Xamarin.iOS/Facades/System.IO.FileSystem.DriveInfo.dll
-r=/Library/Frameworks/Xamarin.iOS.framework/Versions/Current/lib/mono/Xamarin.iOS/Facades/System.IO.FileSystem.Primitives.dll
-r=/Library/Frameworks/Xamarin.iOS.framework/Versions/Current/lib/mono/Xamarin.iOS/Facades/System.IO.FileSystem.Watcher.dll
-r=/Library/Frameworks/Xamarin.iOS.framework/Versions/Current/lib/mono/Xamarin.iOS/Facades/System.IO.IsolatedStorage.dll
-r=/Library/Frameworks/Xamarin.iOS.framework/Versions/Current/lib/mono/Xamarin.iOS/Facades/System.IO.MemoryMappedFiles.dll
-r=/Library/Frameworks/Xamarin.iOS.framework/Versions/Current/lib/mono/Xamarin.iOS/Facades/System.IO.Pipes.dll
-r=/Library/Frameworks/Xamarin.iOS.framework/Versions/Current/lib/mono/Xamarin.iOS/Facades/System.IO.UnmanagedMemoryStream.dll
-r=/Library/Frameworks/Xamarin.iOS.framework/Versions/Current/lib/mono/Xamarin.iOS/Facades/System.Linq.dll
-r=/Library/Frameworks/Xamarin.iOS.framework/Versions/Current/lib/mono/Xamarin.iOS/Facades/System.Linq.Expressions.dll
-r=/Library/Frameworks/Xamarin.iOS.framework/Versions/Current/lib/mono/Xamarin.iOS/Facades/System.Linq.Parallel.dll
-r=/Library/Frameworks/Xamarin.iOS.framework/Versions/Current/lib/mono/Xamarin.iOS/Facades/System.Linq.Queryable.dll
-r=/Library/Frameworks/Xamarin.iOS.framework/Versions/Current/lib/mono/Xamarin.iOS/Facades/System.Memory.dll
-r=/Library/Frameworks/Xamarin.iOS.framework/Versions/Current/lib/mono/Xamarin.iOS/Facades/System.Net.AuthenticationManager.dll
-r=/Library/Frameworks/Xamarin.iOS.framework/Versions/Current/lib/mono/Xamarin.iOS/Facades/System.Net.Cache.dll
-r=/Library/Frameworks/Xamarin.iOS.framework/Versions/Current/lib/mono/Xamarin.iOS/Facades/System.Net.HttpListener.dll
-r=/Library/Frameworks/Xamarin.iOS.framework/Versions/Current/lib/mono/Xamarin.iOS/Facades/System.Net.Mail.dll
-r=/Library/Frameworks/Xamarin.iOS.framework/Versions/Current/lib/mono/Xamarin.iOS/Facades/System.Net.NameResolution.dll
-r=/Library/Frameworks/Xamarin.iOS.framework/Versions/Current/lib/mono/Xamarin.iOS/Facades/System.Net.NetworkInformation.dll
-r=/Library/Frameworks/Xamarin.iOS.framework/Versions/Current/lib/mono/Xamarin.iOS/Facades/System.Net.Ping.dll
-r=/Library/Frameworks/Xamarin.iOS.framework/Versions/Current/lib/mono/Xamarin.iOS/Facades/System.Net.Primitives.dll
-r=/Library/Frameworks/Xamarin.iOS.framework/Versions/Current/lib/mono/Xamarin.iOS/Facades/System.Net.Requests.dll
-r=/Library/Frameworks/Xamarin.iOS.framework/Versions/Current/lib/mono/Xamarin.iOS/Facades/System.Net.Security.dll
-r=/Library/Frameworks/Xamarin.iOS.framework/Versions/Current/lib/mono/Xamarin.iOS/Facades/System.Net.ServicePoint.dll
-r=/Library/Frameworks/Xamarin.iOS.framework/Versions/Current/lib/mono/Xamarin.iOS/Facades/System.Net.Sockets.dll
-r=/Library/Frameworks/Xamarin.iOS.framework/Versions/Current/lib/mono/Xamarin.iOS/Facades/System.Net.Utilities.dll
-r=/Library/Frameworks/Xamarin.iOS.framework/Versions/Current/lib/mono/Xamarin.iOS/Facades/System.Net.WebHeaderCollection.dll
-r=/Library/Frameworks/Xamarin.iOS.framework/Versions/Current/lib/mono/Xamarin.iOS/Facades/System.Net.WebSockets.Client.dll
-r=/Library/Frameworks/Xamarin.iOS.framework/Versions/Current/lib/mono/Xamarin.iOS/Facades/System.Net.WebSockets.dll
-r=/Library/Frameworks/Xamarin.iOS.framework/Versions/Current/lib/mono/Xamarin.iOS/Facades/System.ObjectModel.dll
-r=/Library/Frameworks/Xamarin.iOS.framework/Versions/Current/lib/mono/Xamarin.iOS/Facades/System.Reflection.DispatchProxy.dll
-r=/Library/Frameworks/Xamarin.iOS.framework/Versions/Current/lib/mono/Xamarin.iOS/Facades/System.Reflection.dll
-r=/Library/Frameworks/Xamarin.iOS.framework/Versions/Current/lib/mono/Xamarin.iOS/Facades/System.Reflection.Emit.dll
-r=/Library/Frameworks/Xamarin.iOS.framework/Versions/Current/lib/mono/Xamarin.iOS/Facades/System.Reflection.Emit.ILGeneration.dll
-r=/Library/Frameworks/Xamarin.iOS.framework/Versions/Current/lib/mono/Xamarin.iOS/Facades/System.Reflection.Emit.Lightweight.dll
-r=/Library/Frameworks/Xamarin.iOS.framework/Versions/Current/lib/mono/Xamarin.iOS/Facades/System.Reflection.Extensions.dll
-r=/Library/Frameworks/Xamarin.iOS.framework/Versions/Current/lib/mono/Xamarin.iOS/Facades/System.Reflection.Primitives.dll
-r=/Library/Frameworks/Xamarin.iOS.framework/Versions/Current/lib/mono/Xamarin.iOS/Facades/System.Reflection.TypeExtensions.dll
-r=/Library/Frameworks/Xamarin.iOS.framework/Versions/Current/lib/mono/Xamarin.iOS/Facades/System.Resources.Reader.dll
-r=/Library/Frameworks/Xamarin.iOS.framework/Versions/Current/lib/mono/Xamarin.iOS/Facades/System.Resources.ReaderWriter.dll
-r=/Library/Frameworks/Xamarin.iOS.framework/Versions/Current/lib/mono/Xamarin.iOS/Facades/System.Resources.ResourceManager.dll
-r=/Library/Frameworks/Xamarin.iOS.framework/Versions/Current/lib/mono/Xamarin.iOS/Facades/System.Resources.Writer.dll
-r=/Library/Frameworks/Xamarin.iOS.framework/Versions/Current/lib/mono/Xamarin.iOS/Facades/System.Runtime.CompilerServices.VisualC.dll
-r=/Library/Frameworks/Xamarin.iOS.framework/Versions/Current/lib/mono/Xamarin.iOS/Facades/System.Runtime.dll
-r=/Library/Frameworks/Xamarin.iOS.framework/Versions/Current/lib/mono/Xamarin.iOS/Facades/System.Runtime.Extensions.dll
-r=/Library/Frameworks/Xamarin.iOS.framework/Versions/Current/lib/mono/Xamarin.iOS/Facades/System.Runtime.Handles.dll
-r=/Library/Frameworks/Xamarin.iOS.framework/Versions/Current/lib/mono/Xamarin.iOS/Facades/System.Runtime.InteropServices.dll
-r=/Library/Frameworks/Xamarin.iOS.framework/Versions/Current/lib/mono/Xamarin.iOS/Facades/System.Runtime.InteropServices.RuntimeInformation.dll
-r=/Library/Frameworks/Xamarin.iOS.framework/Versions/Current/lib/mono/Xamarin.iOS/Facades/System.Runtime.InteropServices.WindowsRuntime.dll
-r=/Library/Frameworks/Xamarin.iOS.framework/Versions/Current/lib/mono/Xamarin.iOS/Facades/System.Runtime.Loader.dll
-r=/Library/Frameworks/Xamarin.iOS.framework/Versions/Current/lib/mono/Xamarin.iOS/Facades/System.Runtime.Numerics.dll
-r=/Library/Frameworks/Xamarin.iOS.framework/Versions/Current/lib/mono/Xamarin.iOS/Facades/System.Runtime.Serialization.Formatters.dll
-r=/Library/Frameworks/Xamarin.iOS.framework/Versions/Current/lib/mono/Xamarin.iOS/Facades/System.Runtime.Serialization.Json.dll
-r=/Library/Frameworks/Xamarin.iOS.framework/Versions/Current/lib/mono/Xamarin.iOS/Facades/System.Runtime.Serialization.Primitives.dll
-r=/Library/Frameworks/Xamarin.iOS.framework/Versions/Current/lib/mono/Xamarin.iOS/Facades/System.Runtime.Serialization.Xml.dll
-r=/Library/Frameworks/Xamarin.iOS.framework/Versions/Current/lib/mono/Xamarin.iOS/Facades/System.Security.AccessControl.dll
-r=/Library/Frameworks/Xamarin.iOS.framework/Versions/Current/lib/mono/Xamarin.iOS/Facades/System.Security.Claims.dll
-r=/Library/Frameworks/Xamarin.iOS.framework/Versions/Current/lib/mono/Xamarin.iOS/Facades/System.Security.Cryptography.Algorithms.dll
-r=/Library/Frameworks/Xamarin.iOS.framework/Versions/Current/lib/mono/Xamarin.iOS/Facades/System.Security.Cryptography.Cng.dll
-r=/Library/Frameworks/Xamarin.iOS.framework/Versions/Current/lib/mono/Xamarin.iOS/Facades/System.Security.Cryptography.Csp.dll
-r=/Library/Frameworks/Xamarin.iOS.framework/Versions/Current/lib/mono/Xamarin.iOS/Facades/System.Security.Cryptography.DeriveBytes.dll
-r=/Library/Frameworks/Xamarin.iOS.framework/Versions/Current/lib/mono/Xamarin.iOS/Facades/System.Security.Cryptography.Encoding.dll
-r=/Library/Frameworks/Xamarin.iOS.framework/Versions/Current/lib/mono/Xamarin.iOS/Facades/System.Security.Cryptography.Encryption.Aes.dll
-r=/Library/Frameworks/Xamarin.iOS.framework/Versions/Current/lib/mono/Xamarin.iOS/Facades/System.Security.Cryptography.Encryption.dll
-r=/Library/Frameworks/Xamarin.iOS.framework/Versions/Current/lib/mono/Xamarin.iOS/Facades/System.Security.Cryptography.Encryption.ECDiffieHellman.dll
-r=/Library/Frameworks/Xamarin.iOS.framework/Versions/Current/lib/mono/Xamarin.iOS/Facades/System.Security.Cryptography.Encryption.ECDsa.dll
-r=/Library/Frameworks/Xamarin.iOS.framework/Versions/Current/lib/mono/Xamarin.iOS/Facades/System.Security.Cryptography.Hashing.Algorithms.dll
-r=/Library/Frameworks/Xamarin.iOS.framework/Versions/Current/lib/mono/Xamarin.iOS/Facades/System.Security.Cryptography.Hashing.dll
-r=/Library/Frameworks/Xamarin.iOS.framework/Versions/Current/lib/mono/Xamarin.iOS/Facades/System.Security.Cryptography.OpenSsl.dll
-r=/Library/Frameworks/Xamarin.iOS.framework/Versions/Current/lib/mono/Xamarin.iOS/Facades/System.Security.Cryptography.Pkcs.dll
-r=/Library/Frameworks/Xamarin.iOS.framework/Versions/Current/lib/mono/Xamarin.iOS/Facades/System.Security.Cryptography.Primitives.dll
-r=/Library/Frameworks/Xamarin.iOS.framework/Versions/Current/lib/mono/Xamarin.iOS/Facades/System.Security.Cryptography.ProtectedData.dll
-r=/Library/Frameworks/Xamarin.iOS.framework/Versions/Current/lib/mono/Xamarin.iOS/Facades/System.Security.Cryptography.RandomNumberGenerator.dll
-r=/Library/Frameworks/Xamarin.iOS.framework/Versions/Current/lib/mono/Xamarin.iOS/Facades/System.Security.Cryptography.RSA.dll
-r=/Library/Frameworks/Xamarin.iOS.framework/Versions/Current/lib/mono/Xamarin.iOS/Facades/System.Security.Cryptography.X509Certificates.dll
-r=/Library/Frameworks/Xamarin.iOS.framework/Versions/Current/lib/mono/Xamarin.iOS/Facades/System.Security.Principal.dll
-r=/Library/Frameworks/Xamarin.iOS.framework/Versions/Current/lib/mono/Xamarin.iOS/Facades/System.Security.Principal.Windows.dll
-r=/Library/Frameworks/Xamarin.iOS.framework/Versions/Current/lib/mono/Xamarin.iOS/Facades/System.Security.SecureString.dll
-r=/Library/Frameworks/Xamarin.iOS.framework/Versions/Current/lib/mono/Xamarin.iOS/Facades/System.ServiceModel.Duplex.dll
-r=/Library/Frameworks/Xamarin.iOS.framework/Versions/Current/lib/mono/Xamarin.iOS/Facades/System.ServiceModel.Http.dll
-r=/Library/Frameworks/Xamarin.iOS.framework/Versions/Current/lib/mono/Xamarin.iOS/Facades/System.ServiceModel.NetTcp.dll
-r=/Library/Frameworks/Xamarin.iOS.framework/Versions/Current/lib/mono/Xamarin.iOS/Facades/System.ServiceModel.Primitives.dll
-r=/Library/Frameworks/Xamarin.iOS.framework/Versions/Current/lib/mono/Xamarin.iOS/Facades/System.ServiceModel.Security.dll
-r=/Library/Frameworks/Xamarin.iOS.framework/Versions/Current/lib/mono/Xamarin.iOS/Facades/System.ServiceProcess.ServiceController.dll
-r=/Library/Frameworks/Xamarin.iOS.framework/Versions/Current/lib/mono/Xamarin.iOS/Facades/System.Text.Encoding.CodePages.dll
-r=/Library/Frameworks/Xamarin.iOS.framework/Versions/Current/lib/mono/Xamarin.iOS/Facades/System.Text.Encoding.dll
-r=/Library/Frameworks/Xamarin.iOS.framework/Versions/Current/lib/mono/Xamarin.iOS/Facades/System.Text.Encoding.Extensions.dll
-r=/Library/Frameworks/Xamarin.iOS.framework/Versions/Current/lib/mono/Xamarin.iOS/Facades/System.Text.RegularExpressions.dll
-r=/Library/Frameworks/Xamarin.iOS.framework/Versions/Current/lib/mono/Xamarin.iOS/Facades/System.Threading.AccessControl.dll
-r=/Library/Frameworks/Xamarin.iOS.framework/Versions/Current/lib/mono/Xamarin.iOS/Facades/System.Threading.dll
-r=/Library/Frameworks/Xamarin.iOS.framework/Versions/Current/lib/mono/Xamarin.iOS/Facades/System.Threading.Overlapped.dll
-r=/Library/Frameworks/Xamarin.iOS.framework/Versions/Current/lib/mono/Xamarin.iOS/Facades/System.Threading.Tasks.dll
-r=/Library/Frameworks/Xamarin.iOS.framework/Versions/Current/lib/mono/Xamarin.iOS/Facades/System.Threading.Tasks.Extensions.dll
-r=/Library/Frameworks/Xamarin.iOS.framework/Versions/Current/lib/mono/Xamarin.iOS/Facades/System.Threading.Tasks.Parallel.dll
-r=/Library/Frameworks/Xamarin.iOS.framework/Versions/Current/lib/mono/Xamarin.iOS/Facades/System.Threading.Thread.dll
-r=/Library/Frameworks/Xamarin.iOS.framework/Versions/Current/lib/mono/Xamarin.iOS/Facades/System.Threading.ThreadPool.dll
-r=/Library/Frameworks/Xamarin.iOS.framework/Versions/Current/lib/mono/Xamarin.iOS/Facades/System.Threading.Timer.dll
-r=/Library/Frameworks/Xamarin.iOS.framework/Versions/Current/lib/mono/Xamarin.iOS/Facades/System.ValueTuple.dll
-r=/Library/Frameworks/Xamarin.iOS.framework/Versions/Current/lib/mono/Xamarin.iOS/Facades/System.Xml.ReaderWriter.dll
-r=/Library/Frameworks/Xamarin.iOS.framework/Versions/Current/lib/mono/Xamarin.iOS/Facades/System.Xml.XDocument.dll
-r=/Library/Frameworks/Xamarin.iOS.framework/Versions/Current/lib/mono/Xamarin.iOS/Facades/System.Xml.XmlDocument.dll
-r=/Library/Frameworks/Xamarin.iOS.framework/Versions/Current/lib/mono/Xamarin.iOS/Facades/System.Xml.XmlSerializer.dll
-r=/Library/Frameworks/Xamarin.iOS.framework/Versions/Current/lib/mono/Xamarin.iOS/Facades/System.Xml.XPath.dll
-r=/Library/Frameworks/Xamarin.iOS.framework/Versions/Current/lib/mono/Xamarin.iOS/Facades/System.Xml.XPath.XDocument.dll
-r=/Library/Frameworks/Xamarin.iOS.framework/Versions/Current/lib/mono/Xamarin.iOS/Facades/System.Xml.XPath.XmlDocument.dll
-r=/Library/Frameworks/Xamarin.iOS.framework/Versions/Current/lib/mono/Xamarin.iOS/Facades/System.Xml.Xsl.Primitives.dll
-r=/Users/shatakshi/.nuget/packages/acr.userdialogs/7.1.0.446/lib/xamarinios10/Acr.UserDialogs.dll
-r=/Users/shatakshi/.nuget/packages/btprogresshud/1.3.2/lib/xamarinios10/BTProgressHUD.dll
-r=/Users/shatakshi/.nuget/packages/carouselview.formsplugin/5.2.0/lib/Xamarin.iOS10/CarouselView.FormsPlugin.Abstractions.dll
-r=/Users/shatakshi/.nuget/packages/carouselview.formsplugin/5.2.0/lib/Xamarin.iOS10/CarouselView.FormsPlugin.iOS.dll
-r=/Users/shatakshi/.nuget/packages/newtonsoft.json/12.0.3/lib/netstandard2.0/Newtonsoft.Json.dll
-r=/Users/shatakshi/.nuget/packages/restsharp/106.11.4/lib/netstandard2.0/RestSharp.dll
-r=/Users/shatakshi/.nuget/packages/rg.plugins.popup/2.0.0.5/lib/xamarinios10/Rg.Plugins.Popup.dll
-r=/Users/shatakshi/.nuget/packages/xamarin.essentials/1.5.3.2/lib/xamarinios10/Xamarin.Essentials.dll
-r=/Users/shatakshi/.nuget/packages/xamarin.forms/4.7.0.1260/lib/Xamarin.iOS10/Xamarin.Forms.Core.dll
-r=/Users/shatakshi/.nuget/packages/xamarin.forms/4.7.0.1260/lib/Xamarin.iOS10/Xamarin.Forms.Platform.dll
-r=/Users/shatakshi/.nuget/packages/xamarin.forms/4.7.0.1260/lib/Xamarin.iOS10/Xamarin.Forms.Xaml.dll
-r=/Users/shatakshi/.nuget/packages/xamarin.forms/4.7.0.1260/lib/Xamarin.iOS10/ar/Xamarin.Forms.Platform.iOS.resources.dll
-r=/Users/shatakshi/.nuget/packages/xamarin.forms/4.7.0.1260/lib/Xamarin.iOS10/ca/Xamarin.Forms.Platform.iOS.resources.dll
-r=/Users/shatakshi/.nuget/packages/xamarin.forms/4.7.0.1260/lib/Xamarin.iOS10/cs/Xamarin.Forms.Platform.iOS.resources.dll
-r=/Users/shatakshi/.nuget/packages/xamarin.forms/4.7.0.1260/lib/Xamarin.iOS10/da/Xamarin.Forms.Platform.iOS.resources.dll
-r=/Users/shatakshi/.nuget/packages/xamarin.forms/4.7.0.1260/lib/Xamarin.iOS10/de/Xamarin.Forms.Platform.iOS.resources.dll
-r=/Users/shatakshi/.nuget/packages/xamarin.forms/4.7.0.1260/lib/Xamarin.iOS10/el/Xamarin.Forms.Platform.iOS.resources.dll
-r=/Users/shatakshi/.nuget/packages/xamarin.forms/4.7.0.1260/lib/Xamarin.iOS10/es/Xamarin.Forms.Platform.iOS.resources.dll
-r=/Users/shatakshi/.nuget/packages/xamarin.forms/4.7.0.1260/lib/Xamarin.iOS10/fi/Xamarin.Forms.Platform.iOS.resources.dll
-r=/Users/shatakshi/.nuget/packages/xamarin.forms/4.7.0.1260/lib/Xamarin.iOS10/fr/Xamarin.Forms.Platform.iOS.resources.dll
-r=/Users/shatakshi/.nuget/packages/xamarin.forms/4.7.0.1260/lib/Xamarin.iOS10/he/Xamarin.Forms.Platform.iOS.resources.dll
-r=/Users/shatakshi/.nuget/packages/xamarin.forms/4.7.0.1260/lib/Xamarin.iOS10/hi/Xamarin.Forms.Platform.iOS.resources.dll
-r=/Users/shatakshi/.nuget/packages/xamarin.forms/4.7.0.1260/lib/Xamarin.iOS10/hr/Xamarin.Forms.Platform.iOS.resources.dll
-r=/Users/shatakshi/.nuget/packages/xamarin.forms/4.7.0.1260/lib/Xamarin.iOS10/hu/Xamarin.Forms.Platform.iOS.resources.dll
-r=/Users/shatakshi/.nuget/packages/xamarin.forms/4.7.0.1260/lib/Xamarin.iOS10/id/Xamarin.Forms.Platform.iOS.resources.dll
-r=/Users/shatakshi/.nuget/packages/xamarin.forms/4.7.0.1260/lib/Xamarin.iOS10/it/Xamarin.Forms.Platform.iOS.resources.dll
-r=/Users/shatakshi/.nuget/packages/xamarin.forms/4.7.0.1260/lib/Xamarin.iOS10/ja/Xamarin.Forms.Platform.iOS.resources.dll
-r=/Users/shatakshi/.nuget/packages/xamarin.forms/4.7.0.1260/lib/Xamarin.iOS10/ko/Xamarin.Forms.Platform.iOS.resources.dll
-r=/Users/shatakshi/.nuget/packages/xamarin.forms/4.7.0.1260/lib/Xamarin.iOS10/ms/Xamarin.Forms.Platform.iOS.resources.dll
-r=/Users/shatakshi/.nuget/packages/xamarin.forms/4.7.0.1260/lib/Xamarin.iOS10/nb/Xamarin.Forms.Platform.iOS.resources.dll
-r=/Users/shatakshi/.nuget/packages/xamarin.forms/4.7.0.1260/lib/Xamarin.iOS10/nl/Xamarin.Forms.Platform.iOS.resources.dll
-r=/Users/shatakshi/.nuget/packages/xamarin.forms/4.7.0.1260/lib/Xamarin.iOS10/pl/Xamarin.Forms.Platform.iOS.resources.dll
-r=/Users/shatakshi/.nuget/packages/xamarin.forms/4.7.0.1260/lib/Xamarin.iOS10/pt-BR/Xamarin.Forms.Platform.iOS.resources.dll
-r=/Users/shatakshi/.nuget/packages/xamarin.forms/4.7.0.1260/lib/Xamarin.iOS10/pt/Xamarin.Forms.Platform.iOS.resources.dll
-r=/Users/shatakshi/.nuget/packages/xamarin.forms/4.7.0.1260/lib/Xamarin.iOS10/ro/Xamarin.Forms.Platform.iOS.resources.dll
-r=/Users/shatakshi/.nuget/packages/xamarin.forms/4.7.0.1260/lib/Xamarin.iOS10/ru/Xamarin.Forms.Platform.iOS.resources.dll
-r=/Users/shatakshi/.nuget/packages/xamarin.forms/4.7.0.1260/lib/Xamarin.iOS10/sk/Xamarin.Forms.Platform.iOS.resources.dll
-r=/Users/shatakshi/.nuget/packages/xamarin.forms/4.7.0.1260/lib/Xamarin.iOS10/sv/Xamarin.Forms.Platform.iOS.resources.dll
-r=/Users/shatakshi/.nuget/packages/xamarin.forms/4.7.0.1260/lib/Xamarin.iOS10/th/Xamarin.Forms.Platform.iOS.resources.dll
-r=/Users/shatakshi/.nuget/packages/xamarin.forms/4.7.0.1260/lib/Xamarin.iOS10/tr/Xamarin.Forms.Platform.iOS.resources.dll
-r=/Users/shatakshi/.nuget/packages/xamarin.forms/4.7.0.1260/lib/Xamarin.iOS10/uk/Xamarin.Forms.Platform.iOS.resources.dll
-r=/Users/shatakshi/.nuget/packages/xamarin.forms/4.7.0.1260/lib/Xamarin.iOS10/vi/Xamarin.Forms.Platform.iOS.resources.dll
-r=/Users/shatakshi/.nuget/packages/xamarin.forms/4.7.0.1260/lib/Xamarin.iOS10/zh-HK/Xamarin.Forms.Platform.iOS.resources.dll
-r=/Users/shatakshi/.nuget/packages/xamarin.forms/4.7.0.1260/lib/Xamarin.iOS10/zh-Hans/Xamarin.Forms.Platform.iOS.resources.dll
-r=/Users/shatakshi/.nuget/packages/xamarin.forms/4.7.0.1260/lib/Xamarin.iOS10/zh-Hant/Xamarin.Forms.Platform.iOS.resources.dll
-r=/Users/shatakshi/Desktop/Shatakshi/ECommerceApp/ECommerceApp/bin/Debug/netstandard2.0/ECommerceApp.dll
-r=/Users/shatakshi/.nuget/packages/xamarin.forms/4.7.0.1260/buildTransitive/XCODE11/Xamarin.Forms.Platform.iOS.dll
